<?xml version="1.0" standalone="no"?>
<!DOCTYPE svg PUBLIC "-//W3C//DTD SVG 1.1//EN" "http://www.w3.org/Graphics/SVG/1.1/DTD/svg11.dtd" >
<svg xmlns="http://www.w3.org/2000/svg">
<metadata>Generated by IcoMoon</metadata>
<defs>
<font id="icomoon" horiz-adv-x="1024">
<font-face units-per-em="1024" ascent="960" descent="-64" />
<missing-glyph horiz-adv-x="1024" />
<glyph unicode="&#x20;" horiz-adv-x="512" d="" />
<glyph unicode="&#xe900;" glyph-name="arrow-right-down" horiz-adv-x="1609" d="M835.881 377.48c-17.199-17.513-45.42-17.513-62.619 0l-540.81 550.64c-17.199 17.513-45.42 17.513-62.619 0l-139.625-142.17c-16.779-17.072-16.779-44.43 0-61.501l743.054-756.569c17.199-17.513 45.42-17.513 62.619 0l743.060 756.569c16.767 17.072 16.767 44.43 0 61.501l-139.631 142.17c-17.199 17.513-45.42 17.513-62.619 0l-540.81-550.64z" />
</font></defs></svg>