<svg width="10" height="16" viewBox="0 0 10 16" version="1.1" xmlns="http://www.w3.org/2000/svg" xmlns:xlink="http://www.w3.org/1999/xlink">
<title>icon_dots_light</title>
<desc>Created using Figma</desc>
<g id="Canvas" transform="translate(-2976 -834)">
<g id="icon_dots_light">
<g id="Rectangle" opacity="0.4">
<use xlink:href="#path0_fill" transform="translate(2982 846)" fill="#FFFFFF"/>
</g>
<g id="Rectangle" opacity="0.4">
<use xlink:href="#path0_fill" transform="translate(2976 846)" fill="#FFFFFF"/>
</g>
<g id="Rectangle" opacity="0.4">
<use xlink:href="#path0_fill" transform="translate(2982 840)" fill="#FFFFFF"/>
</g>
<g id="Rectangle" opacity="0.4">
<use xlink:href="#path0_fill" transform="translate(2976 840)" fill="#FFFFFF"/>
</g>
<g id="Rectangle" opacity="0.4">
<use xlink:href="#path0_fill" transform="translate(2982 834)" fill="#FFFFFF"/>
</g>
<g id="Rectangle" opacity="0.4">
<use xlink:href="#path0_fill" transform="translate(2976 834)" fill="#FFFFFF"/>
</g>
</g>
</g>
<defs>
<path id="path0_fill" fill-rule="evenodd" d="M 0 0.3C 0 0.134315 0.134315 0 0.3 0L 3.7 0C 3.86569 0 4 0.134315 4 0.3L 4 3.7C 4 3.86569 3.86569 4 3.7 4L 0.3 4C 0.134315 4 0 3.86569 0 3.7L 0 0.3Z"/>
</defs>
</svg>
