<svg width="5" height="8" viewBox="0 0 5 8" version="1.1" xmlns="http://www.w3.org/2000/svg" xmlns:xlink="http://www.w3.org/1999/xlink">
<title>icon_arrow_big_thin_right_static</title>
<desc>Created using Figma</desc>
<g id="Canvas" transform="translate(-388 63)">
<rect x="388" y="-63" width="5" height="8" fill="#FFFFFF"/>
<clipPath id="clip-0" clip-rule="evenodd">
<path d="M -316 -256L 964 -256L 964 1057L -316 1057L -316 -256Z" fill="#FFFFFF"/>
</clipPath>
<g id="+ Forms Add" clip-path="url(#clip-0)">
<g id="WP">
<g id="BG">
<use xlink:href="#path0_fill" transform="translate(-156 -224)" fill="#F1F1F1"/>
</g>
</g>
<g id="BODY">
<g id="Body" filter="url(#filter0_d)">
<use xlink:href="#path1_fill" transform="translate(242 -78)" fill="#FFFFFF"/>
</g>
<g id="Bread crambs">
<g id="icon_arrow_big_thin_right_static">
<g id="Combined Shape">
<use xlink:href="#path2_fill" transform="translate(388 -63)" fill="#546E7B"/>
</g>
</g>
</g>
</g>
</g>
</g>
<defs>
<filter id="filter0_d" filterUnits="userSpaceOnUse" x="242" y="-78" width="674" height="1089" color-interpolation-filters="sRGB">
<feFlood flood-opacity="0" result="BackgroundImageFix"/>
<feColorMatrix in="SourceAlpha" type="matrix" values="0 0 0 0 0 0 0 0 0 0 0 0 0 0 0 0 0 0 255 0"/>
<feOffset dx="0" dy="4"/>
<feColorMatrix type="matrix" values="0 0 0 0 0 0 0 0 0 0 0 0 0 0 0 0 0 0 0.03 0"/>
<feBlend mode="normal" in2="BackgroundImageFix" result="effect1_dropShadow"/>
<feBlend mode="normal" in="SourceGraphic" in2="effect1_dropShadow" result="shape"/>
</filter>
<path id="path0_fill" fill-rule="evenodd" d="M 0 0L 1120 0L 1120 2928L 0 2928L 0 0Z"/>
<path id="path1_fill" fill-rule="evenodd" d="M 0 4C 0 1.79086 1.79086 0 4 0L 670 0C 672.209 0 674 1.79086 674 4L 674 1081C 674 1083.21 672.209 1085 670 1085L 4 1085C 1.79086 1085 0 1083.21 0 1081L 0 4Z"/>
<path id="path2_fill" fill-rule="evenodd" d="M 0.212148 7.1212C 0.0949838 7.23835 0.0949838 7.42831 0.212148 7.54547L 0.454574 7.78788C 0.57173 7.90503 0.761671 7.90503 0.878827 7.78788L 4.45476 4.21214C 4.57192 4.09498 4.57192 3.90502 4.45476 3.78786L 0.878827 0.212116C 0.761671 0.0949657 0.57173 0.0949657 0.454574 0.212116L 0.212148 0.454529C 0.0949838 0.571688 0.0949838 0.761646 0.212148 0.878804L 3.12135 3.78786C 3.23852 3.90502 3.23852 4.09498 3.12135 4.21214L 0.212148 7.1212Z"/>
</defs>
</svg>
