<svg width="16" height="16" viewBox="0 0 16 16" version="1.1" xmlns="http://www.w3.org/2000/svg" xmlns:xlink="http://www.w3.org/1999/xlink">
<title>icon_trash</title>
<desc>Created using Figma</desc>
<g id="Canvas" transform="translate(-2089 -846)">
<g id="icon_trash">
<g id="Combined Shape">
<use xlink:href="#path0_fill" transform="translate(2090 849)" fill="#CFD8DC"/>
</g>
<g id="Combined Shape">
<use xlink:href="#path1_fill" transform="translate(2094 846)" fill="#CFD8DC"/>
</g>
</g>
</g>
<defs>
<path id="path0_fill" fill-rule="evenodd" d="M 0.300049 0C 0.134277 0 0 0.134338 0 0.299988L 0 12.7C 0 12.8657 0.134277 13 0.300049 13L 9.69995 13C 9.86572 13 10 12.8657 10 12.7L 10 0.299988C 10 0.134338 9.86572 0 9.69995 0L 0.300049 0ZM 2.30005 2C 2.13428 2 2 2.13434 2 2.29999L 2 10.7C 2 10.8657 2.13428 11 2.30005 11L 7.69995 11C 7.86572 11 8 10.8657 8 10.7L 8 2.29999C 8 2.13434 7.86572 2 7.69995 2L 2.30005 2Z"/>
<path id="path1_fill" fill-rule="evenodd" d="M 9.7 13C 9.86569 13 10 12.8657 10 12.7L 10 0.3C 10 0.134315 9.86569 0 9.7 0L 0.3 0C 0.134315 0 0 0.134315 0 0.3L 0 1.7C 0 1.86569 0.134315 2 0.3 2L 7.7 2C 7.86569 2 8 2.13431 8 2.3L 8 10.7C 8 10.8657 7.86569 11 7.7 11L 7.3 11C 7.13431 11 7 11.1343 7 11.3L 7 12.7C 7 12.8657 7.13431 13 7.3 13L 9.7 13Z"/>
</defs>
</svg>
