<svg width="18" height="18" viewBox="0 0 18 18" version="1.1" xmlns="http://www.w3.org/2000/svg" xmlns:xlink="http://www.w3.org/1999/xlink">
<title>Combined Shape</title>
<desc>Created using Figma</desc>
<g id="Canvas" transform="translate(-3148 -330)">
<rect x="3148" y="330" width="18" height="18" fill="#FFFFFF"/>
<clipPath id="clip-0" clip-rule="evenodd">
<path d="M 2443 -256L 3723 -256L 3723 2256L 2443 2256L 2443 -256Z" fill="#FFFFFF"/>
</clipPath>
<g id="+ Tables Settings Flights" clip-path="url(#clip-0)">
<g id="WP">
<g id="BG">
<use xlink:href="#path0_fill" transform="translate(2603 -224)" fill="#F1F1F1"/>
</g>
</g>
<g id="BODY">
<g id="Rectangle" filter="url(#filter0_d)">
<use xlink:href="#path1_fill" transform="translate(3001 -78)" fill="#FFFFFF"/>
</g>
<g id="&#208;&#156;&#208;&#176;&#208;&#186;&#209;&#129;&#208;&#184;&#208;&#188;&#208;&#176;&#208;&#187;&#209;&#140;&#208;&#189;&#209;&#139;&#208;&#185; &#209;&#128;&#208;&#176;&#208;&#183;&#208;&#188;&#208;&#181;&#209;&#128; &#208;&#187;&#208;&#190;&#208;&#179;&#208;&#190; &#208;&#144;&#208;&#178;&#208;&#184;&#208;&#176;&#208;&#186;&#208;&#190;&#208;&#188;&#208;&#191;&#208;&#176;&#208;&#189;&#208;&#184;&#208;&#184;" opacity="0.9">
<g id="x">
<g id="Combined Shape">
<use xlink:href="#path2_fill" transform="translate(3148.87 330.868)" fill="#CFD8DC"/>
</g>
</g>
</g>
</g>
</g>
</g>
<defs>
<filter id="filter0_d" filterUnits="userSpaceOnUse" x="3001" y="-78" width="674" height="2289" color-interpolation-filters="sRGB">
<feFlood flood-opacity="0" result="BackgroundImageFix"/>
<feColorMatrix in="SourceAlpha" type="matrix" values="0 0 0 0 0 0 0 0 0 0 0 0 0 0 0 0 0 0 255 0"/>
<feOffset dx="0" dy="4"/>
<feColorMatrix type="matrix" values="0 0 0 0 0 0 0 0 0 0 0 0 0 0 0 0 0 0 0.03 0"/>
<feBlend mode="normal" in2="BackgroundImageFix" result="effect1_dropShadow"/>
<feBlend mode="normal" in="SourceGraphic" in2="effect1_dropShadow" result="shape"/>
</filter>
<path id="path0_fill" fill-rule="evenodd" d="M 0 0L 1120 0L 1120 2928L 0 2928L 0 0Z"/>
<path id="path1_fill" fill-rule="evenodd" d="M 0 4C 0 1.79086 1.79086 0 4 0L 670 0C 672.209 0 674 1.79086 674 4L 674 2281C 674 2283.21 672.209 2285 670 2285L 4 2285C 1.79086 2285 0 2283.21 0 2281L 0 4Z"/>
<path id="path2_fill" fill-rule="evenodd" d="M 8.34386 5.79828C 8.2267 5.91543 8.03675 5.91543 7.9196 5.79828L 2.33345 0.212132C 2.2163 0.0949747 2.02635 0.0949747 1.90919 0.212132L 0.212132 1.90919C 0.0949747 2.02635 0.0949747 2.2163 0.212132 2.33345L 5.79828 7.9196C 5.91543 8.03675 5.91543 8.2267 5.79828 8.34386L 0.212132 13.93C 0.0949747 14.0472 0.0949747 14.2371 0.212132 14.3543L 1.90919 16.0513C 2.02635 16.1685 2.2163 16.1685 2.33345 16.0513L 7.9196 10.4652C 8.03675 10.348 8.2267 10.348 8.34386 10.4652L 13.93 16.0513C 14.0472 16.1685 14.2371 16.1685 14.3543 16.0513L 16.0513 14.3543C 16.1685 14.2371 16.1685 14.0472 16.0513 13.93L 10.4652 8.34386C 10.348 8.2267 10.348 8.03675 10.4652 7.9196L 16.0513 2.33345C 16.1685 2.2163 16.1685 2.02635 16.0513 1.90919L 14.3543 0.212132C 14.2371 0.0949747 14.0472 0.0949747 13.93 0.212132L 8.34386 5.79828Z"/>
</defs>
</svg>
